<?xml version="1.0" standalone="no"?>
<!DOCTYPE svg PUBLIC "-//W3C//DTD SVG 1.1//EN" "http://www.w3.org/Graphics/SVG/1.1/DTD/svg11.dtd" >
<svg xmlns="http://www.w3.org/2000/svg">
<metadata>Generated by IcoMoon</metadata>
<defs>
<font id="icomoon" horiz-adv-x="1024">
<font-face units-per-em="1024" ascent="960" descent="-64" />
<missing-glyph horiz-adv-x="1024" />
<glyph unicode="&#x20;" d="" horiz-adv-x="512" />
<glyph unicode="&#xe600;" d="M898.338 778.228c-94.685-22.795-293.991 24.548-424.913 181.772h-23.379c-129.753-157.224-327.89-204.566-422.575-181.772 0 0-189.37-661.626 421.991-842.228 0 0 6.429 4.091 23.379 0 616.037 180.603 425.498 842.228 425.498 842.228zM353.607 204.274l73.059 203.982h-134.429l256 283.47-60.785-203.982h146.119l-279.963-283.47z" horiz-adv-x="926" />
<glyph unicode="&#xe601;" d="M744.971 617.774c13.925 26.243 41.238 56.77 59.448 88.904 49.272 86.762-26.243 251.18-152.1 253.322-121.038 2.142-108.72-95.866-230.293-95.866h-24.636c-121.038 0-108.72 97.473-230.293 95.866-125.322-2.142-201.372-162.812-152.1-249.573 18.745-33.205 47.13-62.661 61.054-92.653l6.427-17.138c6.427-32.669 3.213-50.879-5.891-89.439-26.243-111.933-63.197-574.126 131.213-575.197 119.431-0.536-3.749 438.628 202.979 438.628v0c206.728-3.749 83.548-438.092 202.979-438.628 194.41-1.071 157.456 456.837 130.678 568.77-9.64 41.238-12.854 61.054-5.356 94.259l5.891 18.745zM538.243 576v-76.586h-102.293v76.586h-50.879v-76.586h-102.828v76.586h-128v50.879h128v77.121h102.293v-76.586h50.879v76.586h102.293v-76.586h128v-50.879h-127.464z" horiz-adv-x="819" />
<glyph unicode="&#xe602;" d="M340.596 960c19.905-40.363 38.151-79.62 58.056-117.771 41.469-79.067 92.89-151.499 144.864-223.931 38.704-54.186 77.961-108.371 103.395-170.298 44.786-108.371 51.974-217.849-2.765-324.562-59.715-116.665-157.581-179.145-288.069-186.886-169.192-9.952-326.773 113.348-352.207 293.598-12.717 91.784 4.976 179.145 51.421 258.212 34.834 59.715 74.644 116.112 114.454 172.51 64.691 92.89 123.853 188.544 167.533 293.045 0.553 1.659 1.659 3.317 3.317 6.082zM114.454 281.019c0-44.786 11.058-86.808 35.387-124.406 9.952-16.035 25.987-21.011 39.81-12.717 14.376 8.294 18.799 25.987 8.847 42.022-32.069 51.974-33.728 106.713-15.482 163.11 11.058 35.387 32.069 65.797 53.080 95.654 10.505 15.482 8.294 32.622-5.529 42.022-13.27 9.4-29.305 6.082-40.363-9.4-8.847-12.717-17.693-25.434-25.987-38.704-31.516-48.657-50.315-100.078-49.762-157.581z" horiz-adv-x="683" />
<glyph unicode="&#xe603;" d="M1024 294.075h-358.666v-358.666h-307.259v358.666h-358.075v307.259h358.666v358.666h307.259v-358.666h358.666v-307.259z" />
<glyph unicode="&#xe604;" d="M635.29 164.731c20.493 94.533 38.342 188.405 61.48 280.294 7.933 31.070 1.983 50.903-21.154 72.718-25.121 23.138-46.275 50.241-72.718 79.99-68.090-65.446-139.486-109.077-129.57-214.848 11.899-123.62 2.644-248.563 2.644-372.844 0-71.396-0.661-67.429-57.513-72.718-68.090-5.95-54.208 37.681-54.869 74.701-0.661 32.393-0.661 64.785 0 97.178 0.661 23.799-7.933 35.037-34.376 35.037-25.121 0-35.698-9.255-35.698-34.376 1.322-42.309-1.983-83.956 0.661-126.265 2.644-37.020-12.56-48.919-48.919-45.614-32.393 2.644-67.429-8.594-66.768 44.953 1.983 148.741-0.661 297.482 1.322 446.223 0.661 36.359-8.594 64.124-37.020 89.245-41.648 35.698-78.668 78.006-120.315 114.365-29.748 25.782-29.748 44.292-0.661 70.735 27.765 24.46 48.258 48.919 83.956 8.594 34.376-39.003 74.040-74.040 111.721-110.399 50.241-48.919 173.862-49.58 224.103-1.322 40.986 39.664 83.295 79.329 122.298 120.315 23.799 25.121 43.631 23.799 65.446-1.322 11.899-13.221 25.121-25.782 38.342-37.681 47.597-44.292 85.278-89.245 167.251-94.533 111.721-7.272 173.201 48.258 237.986 117.010 42.97 45.614 85.278 38.342 111.721-18.51 4.628-9.916-3.305-31.070-12.56-40.325-41.648-43.631-84.617-86.6-129.57-126.926-25.121-22.476-31.070-44.953-23.138-76.684 21.815-91.228 40.986-182.456 60.819-271.7-5.95-4.628-8.594-7.933-11.238-8.594-67.429-7.933-67.429-7.933-68.090-78.006 0-32.393-2.644-64.785 0.661-97.178 3.966-45.614-25.121-43.631-56.852-44.292-33.054-0.661-58.835 1.322-55.53 45.614 3.305 44.953 2.644 90.567-0.661 135.52-0.661 11.899-16.527 29.748-28.426 33.054-26.443 7.272-33.054-11.899-32.393-34.376 0.661-46.936-1.322-93.872 0.661-140.808 1.322-43.631-29.748-39.003-57.513-39.003-27.104 0-59.496-6.611-57.513 38.342 1.322 39.003-1.983 78.006 0.661 116.349 3.305 42.97-5.95 70.074-57.513 62.141-6.611 0-13.221 3.966-21.154 5.95zM706.025 866.789c-56.191-23.799-106.433-51.564-164.607-23.799 40.325 83.295 113.043 105.771 186.422 59.496 100.483 76.684 153.369 76.684 254.513 0 73.379 46.275 142.791 25.121 187.744-59.496-58.835-29.748-110.399 3.305-164.607 21.815-1.322-130.892-56.191-198.983-154.691-195.677-97.178 1.983-150.724 72.057-144.775 197.66zM331.197 954.050c83.956 0 148.741-62.141 149.402-142.791 0.661-82.634-66.107-147.419-150.724-147.419-83.295 0-149.402 63.463-150.063 143.453-0.661 83.295 64.785 146.758 151.385 146.758z" horiz-adv-x="1185" />
<glyph unicode="&#xe605;" d="M745.408 617.241c13.903 26.202 41.174 57.216 59.355 88.764 49.73 86.626-26.736 251.321-151.862 253.46-121.383 2.139-109.084-95.716-230.467-95.716h-24.597c-121.383 0-109.084 97.855-230.467 96.251-125.661-2.139-201.592-163.091-151.862-249.717 18.715-33.688 47.056-62.563 60.959-92.508l5.882-17.646c5.882-32.618 3.208-50.799-5.882-89.299-26.202-111.758-63.098-574.296 131.543-574.83 119.779-0.535-3.743 439.010 203.196 439.010v0c206.404-3.743 83.417-438.475 203.196-439.010 194.64-0.535 157.209 457.191 131.008 568.948-9.625 41.174-12.833 60.959-5.347 94.112l5.347 18.181zM195.175-8.389c-63.098 0-96.251 35.292-101.063 342.225 26.736-22.993 138.494-53.473 163.091-49.73-20.32-61.493-7.486-292.495-62.028-292.495zM635.789-14.805c-44.382-1.069-49.195 104.806-54.542 236.349s-62.028 175.39-62.028 175.39c39.035 5.882 106.41 92.508 178.064 111.758 87.695-356.662-17.111-522.427-61.493-523.497z" horiz-adv-x="820" />
<glyph unicode="&#xe606;" d="M122.957 306.792c62.759-48.67 130.642-81.971 210.051-92.218 0 4.483 0 8.966 0 12.808 0 35.222-0.64 69.804 0.64 105.026 0 10.887-3.842 13.448-13.448 16.010-46.749 14.089-94.139 26.897-140.248 43.547-37.784 13.448-70.444 35.862-96.7 65.961-37.784 43.547-48.030 96.060-45.468 151.775 5.764 117.193 86.454 202.366 209.411 230.544 23.695 5.123 48.030 7.044 72.365 10.246 4.483 0.64 8.966 0.64 14.089 1.281 0 35.862 0 71.084 0 106.947 18.572 0 36.503 0 55.074 0 0-35.862 0-71.725 0-108.228 105.666-7.044 201.726-37.143 285.619-105.026-36.503-51.872-73.006-103.745-110.149-155.617-53.153 37.143-109.508 64.040-174.189 74.927 0-5.123-0.64-8.966-0.64-12.168 0-33.301 0-66.602 0-100.543 0-8.325 1.921-12.168 10.887-14.089 56.996-12.168 112.71-26.897 165.864-52.513 33.301-16.010 64.040-36.503 87.735-65.321 29.458-35.862 41.626-77.488 42.907-123.597 1.281-68.523-17.291-130.001-65.961-179.952-39.064-39.705-87.094-63.4-140.888-75.567-27.537-6.404-56.355-8.325-84.533-12.168-5.123-0.64-9.606-1.281-16.010-1.921 0-30.739 0-60.838 0-91.577-19.212 0-36.503 0-55.715 0 0 30.739 0 61.478 0 93.498-124.878 9.606-237.588 47.39-333.649 131.282 40.986 48.67 81.971 97.341 122.957 146.652zM390.004 212.653c20.493-1.281 45.468 4.483 60.198 13.448 30.099 18.572 32.020 59.557 1.921 78.129-18.572 11.527-39.705 18.572-62.119 28.818 0-42.266 0-80.69 0-120.395zM333.008 553.346c0 40.986 0 78.129 0 115.272-17.931-0.64-34.582-3.842-49.311-13.448-28.818-17.931-30.739-58.276-1.921-76.848 14.729-10.246 32.020-16.010 51.232-24.976z" horiz-adv-x="697" />
<glyph unicode="&#xe607;" d="M379.654 960h-2.243c-399.281-11.777-596.679-512.561-2.804-1024 2.243 0 7.29 0 7.29 0 593.875 511.439 396.478 1012.223-2.243 1024zM378.532 404.258c-101.503 0-183.378 84.679-183.378 188.986s82.436 188.986 183.378 188.986c101.503 0 183.378-84.679 183.378-188.986s-82.436-188.986-183.378-188.986z" horiz-adv-x="757" />
</font></defs></svg>